%YAML 1.1
%TAG !u! tag:unity3d.com,2011:
--- !u!78 &1
TagManager:
  serializedVersion: 2
  tags:
  - Tree/Building
  - SceneChange
  - Points
  - Zombie
  - Enemy
  - Floor
  layers:
  - Default
  - TransparentFX
  - Ignore Raycast
  - Interactable
  - Water
  - UI
  - RagDoll
  - Target
  - RagDollf
  - 
  - 
  - 
  - 
  - 
  - 
  - 
  - 
  - 
  - 
  - 
  - 
  - 
  - 
  - 
  - 
  - 
  - 
  - 
  - 
  - 
  - 
  - 
  m_SortingLayers:
  - name: Default
    uniqueID: 0
    locked: 0
